-------------------------------------------------------------------------------
Test set: lardeur.LardeurTest
-------------------------------------------------------------------------------
Tests run: 1, Failures: 0, Errors: 0, Skipped: 0, Time elapsed: 254.831 sec
